<?xml version="1.0" encoding="UTF-8" standalone="no"?>
<!-- Created with Inkscape (http://www.inkscape.org/) -->

<svg
   xmlns:dc="http://purl.org/dc/elements/1.1/"
   xmlns:cc="http://creativecommons.org/ns#"
   xmlns:rdf="http://www.w3.org/1999/02/22-rdf-syntax-ns#"
   xmlns:svg="http://www.w3.org/2000/svg"
   xmlns="http://www.w3.org/2000/svg"
   xmlns:sodipodi="http://sodipodi.sourceforge.net/DTD/sodipodi-0.dtd"
   xmlns:inkscape="http://www.inkscape.org/namespaces/inkscape"
   width="133.01057mm"
   height="68.188568mm"
   viewBox="0 0 133.01057 68.188568"
   version="1.1"
   id="svg8"
   inkscape:version="0.92.4 (5da689c313, 2019-01-14)"
   sodipodi:docname="game_tree_1.svg">
  <defs
     id="defs2">
    <clipPath
       id="clipEmfPath1"
       clipPathUnits="userSpaceOnUse">
      <path
         id="path5342"
         d="m 264.32378,10.067956 h 38.83355 v 17.898587 h -38.83355 z"
         inkscape:connector-curvature="0" />
    </clipPath>
    <clipPath
       id="clipEmfPath2"
       clipPathUnits="userSpaceOnUse">
      <path
         id="path5345"
         d="m 116.34082,108.03076 h 38.83354 v 17.89859 h -38.83354 z"
         inkscape:connector-curvature="0" />
    </clipPath>
    <clipPath
       id="clipEmfPath3"
       clipPathUnits="userSpaceOnUse">
      <path
         id="path5348"
         d="m 413.58522,108.67 h 38.83354 v 17.89858 h -38.83354 z"
         inkscape:connector-curvature="0" />
    </clipPath>
    <clipPath
       id="clipEmfPath4"
       clipPathUnits="userSpaceOnUse">
      <path
         id="path5351"
         d="m 213.66439,108.67 h 140.47195 v 17.89858 H 213.66439 Z"
         inkscape:connector-curvature="0" />
    </clipPath>
    <clipPath
       id="clipEmfPath5"
       clipPathUnits="userSpaceOnUse">
      <path
         id="path5354"
         d="M 93.807776,73.352247 H 130.72361 V 94.127394 H 93.807776 Z"
         inkscape:connector-curvature="0" />
    </clipPath>
    <clipPath
       id="clipEmfPath6"
       clipPathUnits="userSpaceOnUse">
      <path
         id="path5357"
         d="m 267.20034,73.352247 h 43.14838 v 21.893808 h -43.14838 z"
         inkscape:connector-curvature="0" />
    </clipPath>
    <clipPath
       id="clipEmfPath7"
       clipPathUnits="userSpaceOnUse">
      <path
         id="path5360"
         d="M 0.15980882,7.3512056 H 79.7446 V 33.240234 H 0.15980882 Z"
         inkscape:connector-curvature="0" />
    </clipPath>
    <clipPath
       id="clipEmfPath8"
       clipPathUnits="userSpaceOnUse">
      <path
         id="path5363"
         d="M 0.15980882,103.2365 H 79.7446 v 25.88902 H 0.15980882 Z"
         inkscape:connector-curvature="0" />
    </clipPath>
    <clipPath
       id="clipEmfPath9"
       clipPathUnits="userSpaceOnUse">
      <path
         id="path5366"
         d="M 0.15980882,154.37532 H 79.7446 v 25.88903 H 0.15980882 Z"
         inkscape:connector-curvature="0" />
    </clipPath>
    <clipPath
       id="clipEmfPath10"
       clipPathUnits="userSpaceOnUse">
      <path
         id="path5369"
         d="m 122.09394,104.35516 h 11.34642 v 22.21342 h -11.34642 z"
         inkscape:connector-curvature="0" />
    </clipPath>
    <clipPath
       id="clipEmfPath11"
       clipPathUnits="userSpaceOnUse">
      <path
         id="path5372"
         d="m 435.63884,104.35516 h 11.34642 v 22.21342 h -11.34642 z"
         inkscape:connector-curvature="0" />
    </clipPath>
    <clipPath
       id="clipEmfPath12"
       clipPathUnits="userSpaceOnUse">
      <path
         id="path5375"
         d="m 209.50936,23.811514 h 9.58853 V 43.30819 h -9.58853 z"
         inkscape:connector-curvature="0" />
    </clipPath>
    <clipPath
       id="clipEmfPath13"
       clipPathUnits="userSpaceOnUse">
      <path
         id="path5378"
         d="m 346.78513,23.811514 h 9.58853 V 43.30819 h -9.58853 z"
         inkscape:connector-curvature="0" />
    </clipPath>
    <clipPath
       id="clipEmfPath14"
       clipPathUnits="userSpaceOnUse">
      <path
         id="path5381"
         d="m 112.82503,136.63654 h 7.51101 v 17.57897 h -7.51101 z"
         inkscape:connector-curvature="0" />
    </clipPath>
    <clipPath
       id="clipEmfPath15"
       clipPathUnits="userSpaceOnUse">
      <path
         id="path5384"
         d="m 158.21073,136.63654 h 7.51101 v 17.57897 h -7.51101 z"
         inkscape:connector-curvature="0" />
    </clipPath>
    <clipPath
       id="clipEmfPath16"
       clipPathUnits="userSpaceOnUse">
      <path
         id="path5387"
         d="m 186.01746,136.63654 h 7.51102 v 17.57897 h -7.51102 z"
         inkscape:connector-curvature="0" />
    </clipPath>
    <clipPath
       id="clipEmfPath17"
       clipPathUnits="userSpaceOnUse">
      <path
         id="path5390"
         d="m 231.40317,136.63654 h 7.51101 v 17.57897 h -7.51101 z"
         inkscape:connector-curvature="0" />
    </clipPath>
    <clipPath
       id="clipEmfPath18"
       clipPathUnits="userSpaceOnUse">
      <path
         id="path5393"
         d="m 328.56693,136.63654 h 7.51101 v 17.57897 h -7.51101 z"
         inkscape:connector-curvature="0" />
    </clipPath>
    <clipPath
       id="clipEmfPath19"
       clipPathUnits="userSpaceOnUse">
      <path
         id="path5396"
         d="m 373.95263,136.63654 h 7.51102 v 17.57897 h -7.51102 z"
         inkscape:connector-curvature="0" />
    </clipPath>
    <clipPath
       id="clipEmfPath20"
       clipPathUnits="userSpaceOnUse">
      <path
         id="path5399"
         d="m 401.12013,136.63654 h 7.51102 v 17.57897 h -7.51102 z"
         inkscape:connector-curvature="0" />
    </clipPath>
    <clipPath
       id="clipEmfPath21"
       clipPathUnits="userSpaceOnUse">
      <path
         id="path5402"
         d="m 446.50584,136.63654 h 7.51101 v 17.57897 h -7.51101 z"
         inkscape:connector-curvature="0" />
    </clipPath>
    <clipPath
       id="clipEmfPath22"
       clipPathUnits="userSpaceOnUse">
      <path
         id="path5405"
         d="m 112.18579,176.26913 h 7.51101 v 17.73877 h -7.51101 z"
         inkscape:connector-curvature="0" />
    </clipPath>
    <clipPath
       id="clipEmfPath23"
       clipPathUnits="userSpaceOnUse">
      <path
         id="path5408"
         d="m 155.8136,176.26913 h 17.73878 V 194.0079 H 155.8136 Z"
         inkscape:connector-curvature="0" />
    </clipPath>
    <clipPath
       id="clipEmfPath24"
       clipPathUnits="userSpaceOnUse">
      <path
         id="path5411"
         d="m 184.09976,176.26913 h 7.51101 v 17.73877 h -7.51101 z"
         inkscape:connector-curvature="0" />
    </clipPath>
    <clipPath
       id="clipEmfPath25"
       clipPathUnits="userSpaceOnUse">
      <path
         id="path5414"
         d="m 227.72757,176.26913 h 17.73877 v 17.73877 h -17.73877 z"
         inkscape:connector-curvature="0" />
    </clipPath>
    <clipPath
       id="clipEmfPath26"
       clipPathUnits="userSpaceOnUse">
      <path
         id="path5417"
         d="M 323.13343,176.26913 H 340.7124 V 194.0079 H 323.13343 Z"
         inkscape:connector-curvature="0" />
    </clipPath>
    <clipPath
       id="clipEmfPath27"
       clipPathUnits="userSpaceOnUse">
      <path
         id="path5420"
         d="m 375.87034,176.26913 h 7.51101 v 17.73877 h -7.51101 z"
         inkscape:connector-curvature="0" />
    </clipPath>
    <clipPath
       id="clipEmfPath28"
       clipPathUnits="userSpaceOnUse">
      <path
         id="path5423"
         d="m 396.16606,176.26913 h 17.73878 v 17.73877 h -17.73878 z"
         inkscape:connector-curvature="0" />
    </clipPath>
    <clipPath
       id="clipEmfPath29"
       clipPathUnits="userSpaceOnUse">
      <path
         id="path5426"
         d="m 449.06278,176.26913 h 7.51101 v 17.73877 h -7.51101 z"
         inkscape:connector-curvature="0" />
    </clipPath>
    <pattern
       y="0"
       x="0"
       height="6"
       width="6"
       patternUnits="userSpaceOnUse"
       id="EMFhbasepattern" />
  </defs>
  <sodipodi:namedview
     id="base"
     pagecolor="#ffffff"
     bordercolor="#666666"
     borderopacity="1.0"
     inkscape:pageopacity="0.0"
     inkscape:pageshadow="2"
     inkscape:zoom="1.4"
     inkscape:cx="226.04588"
     inkscape:cy="62.925054"
     inkscape:document-units="mm"
     inkscape:current-layer="layer1"
     showgrid="false"
     inkscape:window-width="1920"
     inkscape:window-height="1017"
     inkscape:window-x="-8"
     inkscape:window-y="-8"
     inkscape:window-maximized="1"
     fit-margin-top="0"
     fit-margin-left="0"
     fit-margin-right="0"
     fit-margin-bottom="0" />
  <metadata
     id="metadata5">
    <rdf:RDF>
      <cc:Work
         rdf:about="">
        <dc:format>image/svg+xml</dc:format>
        <dc:type
           rdf:resource="http://purl.org/dc/dcmitype/StillImage" />
        <dc:title></dc:title>
      </cc:Work>
    </rdf:RDF>
  </metadata>
  <g
     inkscape:label="Layer 1"
     inkscape:groupmode="layer"
     id="layer1"
     transform="translate(-13.578041,7.531814)">
    <text
       id="text5436"
       y="4.7890663"
       x="23.135799"
       style="font-style:normal;font-variant:normal;font-weight:400;font-size:3.88606763px;line-height:125%;font-family:Calibri;text-align:start;letter-spacing:0px;word-spacing:0px;text-anchor:start;fill:#000000;fill-opacity:1;stroke:none;stroke-width:0.26458332"
       xml:space="preserve"><tspan
         id="tspan5434"
         y="4.7890663"
         x="23.135799"
         sodipodi:role="line"
         style="stroke-width:0.26458332"><tspan
           id="tspan5432"
           style="font-style:normal;font-variant:normal;font-weight:400;font-size:3.88606763px;font-family:Calibri;fill:#000000;stroke-width:0.26458332"
           dy="0"
           dx="0"> </tspan></tspan></text>
    <path
       id="path5438"
       d="M 98.150677,5.0903338 126.69153,17.775159 126.54882,18.097565 98.007977,5.4127398 Z M 127.05093,16.966502 c 0.53382,0.23784 0.77166,0.861511 0.5391,1.39533 -0.23783,0.53382 -0.8615,0.776946 -1.39533,0.539106 -0.53381,-0.237841 -0.77694,-0.861512 -0.5391,-1.395331 0.23784,-0.53382 0.86151,-0.77166 1.39533,-0.539105 z"
       style="fill:#000000;fill-opacity:1;fill-rule:nonzero;stroke:#000000;stroke-width:0.04228275px;stroke-linecap:butt;stroke-linejoin:bevel;stroke-miterlimit:4;stroke-dasharray:none;stroke-opacity:1"
       inkscape:connector-curvature="0" />
    <path
       id="path5440"
       d="M 98.150677,5.4100978 69.609827,18.094922 69.467117,17.772517 98.007977,5.0876918 Z M 69.969227,18.898295 c -0.53382,0.23784 -1.16013,-0.0026 -1.39533,-0.536463 -0.23784,-0.533819 0.003,-1.15749 0.53646,-1.39533 0.53382,-0.235198 1.15749,0.0026 1.39533,0.536462 0.2352,0.53382 -0.005,1.160133 -0.53646,1.395331 z"
       style="fill:#000000;fill-opacity:1;fill-rule:nonzero;stroke:#000000;stroke-width:0.04228275px;stroke-linecap:butt;stroke-linejoin:bevel;stroke-miterlimit:4;stroke-dasharray:none;stroke-opacity:1"
       inkscape:connector-curvature="0" />
    <path
       id="path5466"
       d="m 69.467117,17.772517 28.54086,-12.6848252 0.1427,0.322406 -28.54085,12.6848242 z m 28.1841,-13.4908402 c 0.53382,-0.235198 1.15749,0.0026 1.39533,0.536462 0.2352,0.53382 -0.005,1.160133 -0.53646,1.395331 -0.53383,0.23784 -1.16014,-0.0026 -1.39534,-0.536463 -0.23784,-0.533819 0.003,-1.15749 0.53647,-1.39533 z"
       style="fill:#000000;fill-opacity:1;fill-rule:nonzero;stroke:#000000;stroke-width:0.04228275px;stroke-linecap:butt;stroke-linejoin:bevel;stroke-miterlimit:4;stroke-dasharray:none;stroke-opacity:1"
       inkscape:connector-curvature="0" />
    <g
       id="g5480"
       clip-path="url(#clipEmfPath1)"
       transform="matrix(0.26458333,0,0,0.26458333,23.008947,1.0259049)">
      <text
         id="text5478"
         y="0"
         x="0"
         transform="translate(273.91231,23.971323)"
         style="font-style:normal;font-variant:normal;font-weight:400;font-size:14.6875px;line-height:204.55527306%;font-family:Calibri;text-align:start;letter-spacing:0px;word-spacing:0px;text-anchor:start;fill:#000000;fill-opacity:1;stroke:none"
         xml:space="preserve"><tspan
           id="tspan5472"
           y="0"
           x="0"
           sodipodi:role="line"><tspan
             id="tspan5470"
             style="font-style:normal;font-variant:normal;font-weight:400;font-size:14.6875px;font-family:Calibri;fill:#000000"
             dy="0"
             dx="0"> </tspan></tspan><tspan
           id="tspan5476"
           y="30.044056"
           x="0"
           sodipodi:role="line"><tspan
             id="tspan5474"
             style="font-style:normal;font-variant:normal;font-weight:400;font-size:14.6875px;font-family:Calibri;fill:#000000"
             dy="0"
             dx="0"> </tspan></tspan></text>
    </g>
    <path
       id="path5576"
       d="m 23.027446,2.9391988 v 6.855091 h 21.054171 v -6.855091 z"
       style="fill:#ffffff;fill-opacity:1;fill-rule:evenodd;stroke:none;stroke-width:0.26458332"
       inkscape:connector-curvature="0" />
    <g
       id="g5592"
       clip-path="url(#clipEmfPath7)"
       transform="matrix(0.26458333,0,0,0.26458333,23.008947,1.0259049)">
      <text
         id="text5590"
         y="0"
         x="0"
         transform="translate(0.159809,21.254573)"
         style="font-style:normal;font-variant:normal;font-weight:400;font-size:14.6875px;line-height:125%;font-family:Calibri;text-align:start;letter-spacing:0px;word-spacing:0px;text-anchor:start;fill:#000000;fill-opacity:1;stroke:none"
         xml:space="preserve"><tspan
           id="tspan5588"
           y="0"
           x="0"
           sodipodi:role="line"><tspan
             id="tspan5578"
             style="font-style:normal;font-variant:normal;font-weight:400;font-size:14.6875px;font-family:Calibri;fill:#000000"
             dy="0"
             dx="0">1 ход </tspan><tspan
             id="tspan5580"
             style="font-style:normal;font-variant:normal;font-weight:400;font-size:14.6875px;font-family:Calibri;fill:#000000"
             dy="0"
             dx="0">(</tspan><tspan
             id="tspan5582"
             style="font-style:italic;font-variant:normal;font-weight:400;font-size:14.6875px;font-family:Calibri;fill:#000000"
             dy="0"
             dx="0">A</tspan><tspan
             id="tspan5584"
             style="font-style:normal;font-variant:normal;font-weight:400;font-size:14.6875px;font-family:Calibri;fill:#000000"
             dy="0"
             dx="0">)</tspan><tspan
             id="tspan5586"
             style="font-style:normal;font-variant:normal;font-weight:400;font-size:14.6875px;font-family:Calibri;fill:#000000"
             dy="0"
             dx="0"> </tspan></tspan></text>
    </g>
    <path
       id="path5654"
       d="m 78.436347,7.2916798 v 5.1796372 h 2.51847 V 7.2916798 Z"
       style="fill:#ffffff;fill-opacity:1;fill-rule:evenodd;stroke:none;stroke-width:0.26458332"
       inkscape:connector-curvature="0" />
    <g
       id="g5664"
       clip-path="url(#clipEmfPath12)"
       transform="matrix(0.26458333,0,0,0.26458333,23.008947,1.0259049)">
      <text
         id="text5662"
         y="0"
         x="0"
         transform="translate(209.50936,38.993352)"
         style="font-style:normal;font-variant:normal;font-weight:400;font-size:16px;line-height:125%;font-family:Calibri;text-align:start;letter-spacing:0px;word-spacing:0px;text-anchor:start;fill:#000000;fill-opacity:1;stroke:none"
         xml:space="preserve"><tspan
           id="tspan5660"
           y="0"
           x="0"
           sodipodi:role="line"><tspan
             id="tspan5656"
             style="font-style:normal;font-variant:normal;font-weight:400;font-size:16px;font-family:Calibri;fill:#000000"
             dy="0"
             dx="0">1</tspan><tspan
             id="tspan5658"
             style="font-style:normal;font-variant:normal;font-weight:400;font-size:16px;font-family:Calibri;fill:#000000"
             dy="0"
             dx="0"> </tspan></tspan></text>
    </g>
    <path
       id="path5666"
       d="m 114.76251,7.2943218 v 5.1796372 h 2.52111 V 7.2943218 Z"
       style="fill:#ffffff;fill-opacity:1;fill-rule:evenodd;stroke:none;stroke-width:0.26458332"
       inkscape:connector-curvature="0" />
    <g
       id="g5676"
       clip-path="url(#clipEmfPath13)"
       transform="matrix(0.26458333,0,0,0.26458333,23.008947,1.0259049)">
      <text
         id="text5674"
         y="0"
         x="0"
         transform="translate(346.78513,38.993352)"
         style="font-style:normal;font-variant:normal;font-weight:400;font-size:16px;line-height:125%;font-family:Calibri;text-align:start;letter-spacing:0px;word-spacing:0px;text-anchor:start;fill:#000000;fill-opacity:1;stroke:none"
         xml:space="preserve"><tspan
           id="tspan5672"
           y="0"
           x="0"
           sodipodi:role="line"><tspan
             id="tspan5668"
             style="font-style:normal;font-variant:normal;font-weight:400;font-size:16px;font-family:Calibri;fill:#000000"
             dy="0"
             dx="0">2</tspan><tspan
             id="tspan5670"
             style="font-style:normal;font-variant:normal;font-weight:400;font-size:16px;font-family:Calibri;fill:#000000"
             dy="0"
             dx="0"> </tspan></tspan></text>
    </g>
  </g>
</svg>
